{
  "posts": [
    {
      "id": 1,
      "member": "json-server",
      "month": "typicode",
      "chamaHse": "typicode",
      "savings": "typicode"
    }
  ],
  "comments": [
    {
      "id": 1,
      "body": "some comment",
      "postId": 1
    }
  ],
  "profile": {
    "name": "typicode"
  }
}